(['Z:\\src\\tcp2map.py'],
 ['Z:\\src', 'Z:\\src'],
 ['codecs'],
 ['c:\\program '
  'files\\python37-32\\lib\\site-packages\\_pyinstaller_hooks_contrib\\hooks\\stdhooks',
  'c:\\program '
  'files\\python37-32\\lib\\site-packages\\_pyinstaller_hooks_contrib\\hooks\\stdhooks\\__pycache__',
  'c:\\program '
  'files\\python37-32\\lib\\site-packages\\_pyinstaller_hooks_contrib\\hooks\\rthooks',
  'c:\\program '
  'files\\python37-32\\lib\\site-packages\\_pyinstaller_hooks_contrib\\hooks\\rthooks\\__pycache__',
  'c:\\program '
  'files\\python37-32\\lib\\site-packages\\_pyinstaller_hooks_contrib\\hooks'],
 {},
 [],
 [],
 False,
 False,
 False,
 '3.7.3 (v3.7.3:ef4ec6ed12, Mar 25 2019, 21:26:53) [MSC v.1916 32 bit (Intel)]',
 [('pyi_rth_pkgutil',
   'c:\\program '
   'files\\python37-32\\lib\\site-packages\\PyInstaller\\hooks\\rthooks\\pyi_rth_pkgutil.py',
   'PYSOURCE'),
  ('pyi_rth_inspect',
   'c:\\program '
   'files\\python37-32\\lib\\site-packages\\PyInstaller\\hooks\\rthooks\\pyi_rth_inspect.py',
   'PYSOURCE'),
  ('pyi_rth_multiprocessing',
   'c:\\program '
   'files\\python37-32\\lib\\site-packages\\PyInstaller\\hooks\\rthooks\\pyi_rth_multiprocessing.py',
   'PYSOURCE'),
  ('tcp2map', 'Z:\\src\\tcp2map.py', 'PYSOURCE')],
 [('multiprocessing.popen_spawn_posix',
   'c:\\program files\\python37-32\\lib\\multiprocessing\\popen_spawn_posix.py',
   'PYMODULE'),
  ('multiprocessing.semaphore_tracker',
   'c:\\program files\\python37-32\\lib\\multiprocessing\\semaphore_tracker.py',
   'PYMODULE'),
  ('threading',
   'c:\\program files\\python37-32\\lib\\threading.py',
   'PYMODULE'),
  ('_threading_local',
   'c:\\program files\\python37-32\\lib\\_threading_local.py',
   'PYMODULE'),
  ('contextlib',
   'c:\\program files\\python37-32\\lib\\contextlib.py',
   'PYMODULE'),
  ('_strptime',
   'c:\\program files\\python37-32\\lib\\_strptime.py',
   'PYMODULE'),
  ('datetime', 'c:\\program files\\python37-32\\lib\\datetime.py', 'PYMODULE'),
  ('calendar', 'c:\\program files\\python37-32\\lib\\calendar.py', 'PYMODULE'),
  ('argparse', 'c:\\program files\\python37-32\\lib\\argparse.py', 'PYMODULE'),
  ('textwrap', 'c:\\program files\\python37-32\\lib\\textwrap.py', 'PYMODULE'),
  ('copy', 'c:\\program files\\python37-32\\lib\\copy.py', 'PYMODULE'),
  ('gettext', 'c:\\program files\\python37-32\\lib\\gettext.py', 'PYMODULE'),
  ('struct', 'c:\\program files\\python37-32\\lib\\struct.py', 'PYMODULE'),
  ('signal', 'c:\\program files\\python37-32\\lib\\signal.py', 'PYMODULE'),
  ('multiprocessing.util',
   'c:\\program files\\python37-32\\lib\\multiprocessing\\util.py',
   'PYMODULE'),
  ('tempfile', 'c:\\program files\\python37-32\\lib\\tempfile.py', 'PYMODULE'),
  ('random', 'c:\\program files\\python37-32\\lib\\random.py', 'PYMODULE'),
  ('bisect', 'c:\\program files\\python37-32\\lib\\bisect.py', 'PYMODULE'),
  ('hashlib', 'c:\\program files\\python37-32\\lib\\hashlib.py', 'PYMODULE'),
  ('shutil', 'c:\\program files\\python37-32\\lib\\shutil.py', 'PYMODULE'),
  ('zipfile', 'c:\\program files\\python37-32\\lib\\zipfile.py', 'PYMODULE'),
  ('py_compile',
   'c:\\program files\\python37-32\\lib\\py_compile.py',
   'PYMODULE'),
  ('ntpath', 'c:\\program files\\python37-32\\lib\\ntpath.py', 'PYMODULE'),
  ('string', 'c:\\program files\\python37-32\\lib\\string.py', 'PYMODULE'),
  ('genericpath',
   'c:\\program files\\python37-32\\lib\\genericpath.py',
   'PYMODULE'),
  ('importlib.machinery',
   'c:\\program files\\python37-32\\lib\\importlib\\machinery.py',
   'PYMODULE'),
  ('importlib',
   'c:\\program files\\python37-32\\lib\\importlib\\__init__.py',
   'PYMODULE'),
  ('importlib.abc',
   'c:\\program files\\python37-32\\lib\\importlib\\abc.py',
   'PYMODULE'),
  ('importlib._bootstrap',
   'c:\\program files\\python37-32\\lib\\importlib\\_bootstrap.py',
   'PYMODULE'),
  ('importlib._bootstrap_external',
   'c:\\program files\\python37-32\\lib\\importlib\\_bootstrap_external.py',
   'PYMODULE'),
  ('tokenize', 'c:\\program files\\python37-32\\lib\\tokenize.py', 'PYMODULE'),
  ('token', 'c:\\program files\\python37-32\\lib\\token.py', 'PYMODULE'),
  ('importlib.util',
   'c:\\program files\\python37-32\\lib\\importlib\\util.py',
   'PYMODULE'),
  ('tarfile', 'c:\\program files\\python37-32\\lib\\tarfile.py', 'PYMODULE'),
  ('gzip', 'c:\\program files\\python37-32\\lib\\gzip.py', 'PYMODULE'),
  ('_compression',
   'c:\\program files\\python37-32\\lib\\_compression.py',
   'PYMODULE'),
  ('lzma', 'c:\\program files\\python37-32\\lib\\lzma.py', 'PYMODULE'),
  ('bz2', 'c:\\program files\\python37-32\\lib\\bz2.py', 'PYMODULE'),
  ('fnmatch', 'c:\\program files\\python37-32\\lib\\fnmatch.py', 'PYMODULE'),
  ('posixpath',
   'c:\\program files\\python37-32\\lib\\posixpath.py',
   'PYMODULE'),
  ('stat', 'c:\\program files\\python37-32\\lib\\stat.py', 'PYMODULE'),
  ('multiprocessing.process',
   'c:\\program files\\python37-32\\lib\\multiprocessing\\process.py',
   'PYMODULE'),
  ('multiprocessing.context',
   'c:\\program files\\python37-32\\lib\\multiprocessing\\context.py',
   'PYMODULE'),
  ('multiprocessing.popen_forkserver',
   'c:\\program files\\python37-32\\lib\\multiprocessing\\popen_forkserver.py',
   'PYMODULE'),
  ('multiprocessing.forkserver',
   'c:\\program files\\python37-32\\lib\\multiprocessing\\forkserver.py',
   'PYMODULE'),
  ('socket', 'c:\\program files\\python37-32\\lib\\socket.py', 'PYMODULE'),
  ('selectors',
   'c:\\program files\\python37-32\\lib\\selectors.py',
   'PYMODULE'),
  ('multiprocessing.sharedctypes',
   'c:\\program files\\python37-32\\lib\\multiprocessing\\sharedctypes.py',
   'PYMODULE'),
  ('multiprocessing.heap',
   'c:\\program files\\python37-32\\lib\\multiprocessing\\heap.py',
   'PYMODULE'),
  ('ctypes',
   'c:\\program files\\python37-32\\lib\\ctypes\\__init__.py',
   'PYMODULE'),
  ('ctypes._endian',
   'c:\\program files\\python37-32\\lib\\ctypes\\_endian.py',
   'PYMODULE'),
  ('multiprocessing.pool',
   'c:\\program files\\python37-32\\lib\\multiprocessing\\pool.py',
   'PYMODULE'),
  ('multiprocessing.dummy',
   'c:\\program files\\python37-32\\lib\\multiprocessing\\dummy\\__init__.py',
   'PYMODULE'),
  ('multiprocessing.dummy.connection',
   'c:\\program files\\python37-32\\lib\\multiprocessing\\dummy\\connection.py',
   'PYMODULE'),
  ('queue', 'c:\\program files\\python37-32\\lib\\queue.py', 'PYMODULE'),
  ('multiprocessing.queues',
   'c:\\program files\\python37-32\\lib\\multiprocessing\\queues.py',
   'PYMODULE'),
  ('multiprocessing.synchronize',
   'c:\\program files\\python37-32\\lib\\multiprocessing\\synchronize.py',
   'PYMODULE'),
  ('multiprocessing.connection',
   'c:\\program files\\python37-32\\lib\\multiprocessing\\connection.py',
   'PYMODULE'),
  ('multiprocessing.resource_sharer',
   'c:\\program files\\python37-32\\lib\\multiprocessing\\resource_sharer.py',
   'PYMODULE'),
  ('xmlrpc.client',
   'c:\\program files\\python37-32\\lib\\xmlrpc\\client.py',
   'PYMODULE'),
  ('xmlrpc',
   'c:\\program files\\python37-32\\lib\\xmlrpc\\__init__.py',
   'PYMODULE'),
  ('xml.parsers.expat',
   'c:\\program files\\python37-32\\lib\\xml\\parsers\\expat.py',
   'PYMODULE'),
  ('xml.parsers',
   'c:\\program files\\python37-32\\lib\\xml\\parsers\\__init__.py',
   'PYMODULE'),
  ('xml', 'c:\\program files\\python37-32\\lib\\xml\\__init__.py', 'PYMODULE'),
  ('xml.sax.expatreader',
   'c:\\program files\\python37-32\\lib\\xml\\sax\\expatreader.py',
   'PYMODULE'),
  ('xml.sax.saxutils',
   'c:\\program files\\python37-32\\lib\\xml\\sax\\saxutils.py',
   'PYMODULE'),
  ('urllib.request',
   'c:\\program files\\python37-32\\lib\\urllib\\request.py',
   'PYMODULE'),
  ('getpass', 'c:\\program files\\python37-32\\lib\\getpass.py', 'PYMODULE'),
  ('nturl2path',
   'c:\\program files\\python37-32\\lib\\nturl2path.py',
   'PYMODULE'),
  ('ftplib', 'c:\\program files\\python37-32\\lib\\ftplib.py', 'PYMODULE'),
  ('netrc', 'c:\\program files\\python37-32\\lib\\netrc.py', 'PYMODULE'),
  ('shlex', 'c:\\program files\\python37-32\\lib\\shlex.py', 'PYMODULE'),
  ('mimetypes',
   'c:\\program files\\python37-32\\lib\\mimetypes.py',
   'PYMODULE'),
  ('getopt', 'c:\\program files\\python37-32\\lib\\getopt.py', 'PYMODULE'),
  ('email.utils',
   'c:\\program files\\python37-32\\lib\\email\\utils.py',
   'PYMODULE'),
  ('email.charset',
   'c:\\program files\\python37-32\\lib\\email\\charset.py',
   'PYMODULE'),
  ('email.encoders',
   'c:\\program files\\python37-32\\lib\\email\\encoders.py',
   'PYMODULE'),
  ('quopri', 'c:\\program files\\python37-32\\lib\\quopri.py', 'PYMODULE'),
  ('email.errors',
   'c:\\program files\\python37-32\\lib\\email\\errors.py',
   'PYMODULE'),
  ('email.quoprimime',
   'c:\\program files\\python37-32\\lib\\email\\quoprimime.py',
   'PYMODULE'),
  ('email.base64mime',
   'c:\\program files\\python37-32\\lib\\email\\base64mime.py',
   'PYMODULE'),
  ('email._parseaddr',
   'c:\\program files\\python37-32\\lib\\email\\_parseaddr.py',
   'PYMODULE'),
  ('http.cookiejar',
   'c:\\program files\\python37-32\\lib\\http\\cookiejar.py',
   'PYMODULE'),
  ('http',
   'c:\\program files\\python37-32\\lib\\http\\__init__.py',
   'PYMODULE'),
  ('urllib',
   'c:\\program files\\python37-32\\lib\\urllib\\__init__.py',
   'PYMODULE'),
  ('ssl', 'c:\\program files\\python37-32\\lib\\ssl.py', 'PYMODULE'),
  ('urllib.response',
   'c:\\program files\\python37-32\\lib\\urllib\\response.py',
   'PYMODULE'),
  ('urllib.error',
   'c:\\program files\\python37-32\\lib\\urllib\\error.py',
   'PYMODULE'),
  ('email',
   'c:\\program files\\python37-32\\lib\\email\\__init__.py',
   'PYMODULE'),
  ('email.parser',
   'c:\\program files\\python37-32\\lib\\email\\parser.py',
   'PYMODULE'),
  ('email._policybase',
   'c:\\program files\\python37-32\\lib\\email\\_policybase.py',
   'PYMODULE'),
  ('email.feedparser',
   'c:\\program files\\python37-32\\lib\\email\\feedparser.py',
   'PYMODULE'),
  ('email.message',
   'c:\\program files\\python37-32\\lib\\email\\message.py',
   'PYMODULE'),
  ('email.policy',
   'c:\\program files\\python37-32\\lib\\email\\policy.py',
   'PYMODULE'),
  ('email.contentmanager',
   'c:\\program files\\python37-32\\lib\\email\\contentmanager.py',
   'PYMODULE'),
  ('email.headerregistry',
   'c:\\program files\\python37-32\\lib\\email\\headerregistry.py',
   'PYMODULE'),
  ('email.iterators',
   'c:\\program files\\python37-32\\lib\\email\\iterators.py',
   'PYMODULE'),
  ('email.generator',
   'c:\\program files\\python37-32\\lib\\email\\generator.py',
   'PYMODULE'),
  ('email._encoded_words',
   'c:\\program files\\python37-32\\lib\\email\\_encoded_words.py',
   'PYMODULE'),
  ('uu', 'c:\\program files\\python37-32\\lib\\uu.py', 'PYMODULE'),
  ('optparse', 'c:\\program files\\python37-32\\lib\\optparse.py', 'PYMODULE'),
  ('email._header_value_parser',
   'c:\\program files\\python37-32\\lib\\email\\_header_value_parser.py',
   'PYMODULE'),
  ('email.header',
   'c:\\program files\\python37-32\\lib\\email\\header.py',
   'PYMODULE'),
  ('xml.sax',
   'c:\\program files\\python37-32\\lib\\xml\\sax\\__init__.py',
   'PYMODULE'),
  ('xml.sax.handler',
   'c:\\program files\\python37-32\\lib\\xml\\sax\\handler.py',
   'PYMODULE'),
  ('xml.sax._exceptions',
   'c:\\program files\\python37-32\\lib\\xml\\sax\\_exceptions.py',
   'PYMODULE'),
  ('xml.sax.xmlreader',
   'c:\\program files\\python37-32\\lib\\xml\\sax\\xmlreader.py',
   'PYMODULE'),
  ('urllib.parse',
   'c:\\program files\\python37-32\\lib\\urllib\\parse.py',
   'PYMODULE'),
  ('http.client',
   'c:\\program files\\python37-32\\lib\\http\\client.py',
   'PYMODULE'),
  ('decimal', 'c:\\program files\\python37-32\\lib\\decimal.py', 'PYMODULE'),
  ('_pydecimal',
   'c:\\program files\\python37-32\\lib\\_pydecimal.py',
   'PYMODULE'),
  ('contextvars',
   'c:\\program files\\python37-32\\lib\\contextvars.py',
   'PYMODULE'),
  ('numbers', 'c:\\program files\\python37-32\\lib\\numbers.py', 'PYMODULE'),
  ('base64', 'c:\\program files\\python37-32\\lib\\base64.py', 'PYMODULE'),
  ('hmac', 'c:\\program files\\python37-32\\lib\\hmac.py', 'PYMODULE'),
  ('multiprocessing.managers',
   'c:\\program files\\python37-32\\lib\\multiprocessing\\managers.py',
   'PYMODULE'),
  ('multiprocessing.reduction',
   'c:\\program files\\python37-32\\lib\\multiprocessing\\reduction.py',
   'PYMODULE'),
  ('pickle', 'c:\\program files\\python37-32\\lib\\pickle.py', 'PYMODULE'),
  ('pprint', 'c:\\program files\\python37-32\\lib\\pprint.py', 'PYMODULE'),
  ('doctest', 'c:\\program files\\python37-32\\lib\\doctest.py', 'PYMODULE'),
  ('unittest',
   'c:\\program files\\python37-32\\lib\\unittest\\__init__.py',
   'PYMODULE'),
  ('unittest.signals',
   'c:\\program files\\python37-32\\lib\\unittest\\signals.py',
   'PYMODULE'),
  ('unittest.main',
   'c:\\program files\\python37-32\\lib\\unittest\\main.py',
   'PYMODULE'),
  ('unittest.runner',
   'c:\\program files\\python37-32\\lib\\unittest\\runner.py',
   'PYMODULE'),
  ('unittest.loader',
   'c:\\program files\\python37-32\\lib\\unittest\\loader.py',
   'PYMODULE'),
  ('unittest.suite',
   'c:\\program files\\python37-32\\lib\\unittest\\suite.py',
   'PYMODULE'),
  ('unittest.case',
   'c:\\program files\\python37-32\\lib\\unittest\\case.py',
   'PYMODULE'),
  ('unittest.result',
   'c:\\program files\\python37-32\\lib\\unittest\\result.py',
   'PYMODULE'),
  ('unittest.util',
   'c:\\program files\\python37-32\\lib\\unittest\\util.py',
   'PYMODULE'),
  ('pdb', 'c:\\program files\\python37-32\\lib\\pdb.py', 'PYMODULE'),
  ('pydoc', 'c:\\program files\\python37-32\\lib\\pydoc.py', 'PYMODULE'),
  ('webbrowser',
   'c:\\program files\\python37-32\\lib\\webbrowser.py',
   'PYMODULE'),
  ('http.server',
   'c:\\program files\\python37-32\\lib\\http\\server.py',
   'PYMODULE'),
  ('socketserver',
   'c:\\program files\\python37-32\\lib\\socketserver.py',
   'PYMODULE'),
  ('html',
   'c:\\program files\\python37-32\\lib\\html\\__init__.py',
   'PYMODULE'),
  ('html.entities',
   'c:\\program files\\python37-32\\lib\\html\\entities.py',
   'PYMODULE'),
  ('pydoc_data.topics',
   'c:\\program files\\python37-32\\lib\\pydoc_data\\topics.py',
   'PYMODULE'),
  ('pydoc_data',
   'c:\\program files\\python37-32\\lib\\pydoc_data\\__init__.py',
   'PYMODULE'),
  ('tty', 'c:\\program files\\python37-32\\lib\\tty.py', 'PYMODULE'),
  ('platform', 'c:\\program files\\python37-32\\lib\\platform.py', 'PYMODULE'),
  ('plistlib', 'c:\\program files\\python37-32\\lib\\plistlib.py', 'PYMODULE'),
  ('pkgutil', 'c:\\program files\\python37-32\\lib\\pkgutil.py', 'PYMODULE'),
  ('runpy', 'c:\\program files\\python37-32\\lib\\runpy.py', 'PYMODULE'),
  ('glob', 'c:\\program files\\python37-32\\lib\\glob.py', 'PYMODULE'),
  ('code', 'c:\\program files\\python37-32\\lib\\code.py', 'PYMODULE'),
  ('codeop', 'c:\\program files\\python37-32\\lib\\codeop.py', 'PYMODULE'),
  ('dis', 'c:\\program files\\python37-32\\lib\\dis.py', 'PYMODULE'),
  ('opcode', 'c:\\program files\\python37-32\\lib\\opcode.py', 'PYMODULE'),
  ('bdb', 'c:\\program files\\python37-32\\lib\\bdb.py', 'PYMODULE'),
  ('cmd', 'c:\\program files\\python37-32\\lib\\cmd.py', 'PYMODULE'),
  ('inspect', 'c:\\program files\\python37-32\\lib\\inspect.py', 'PYMODULE'),
  ('ast', 'c:\\program files\\python37-32\\lib\\ast.py', 'PYMODULE'),
  ('difflib', 'c:\\program files\\python37-32\\lib\\difflib.py', 'PYMODULE'),
  ('__future__',
   'c:\\program files\\python37-32\\lib\\__future__.py',
   'PYMODULE'),
  ('_compat_pickle',
   'c:\\program files\\python37-32\\lib\\_compat_pickle.py',
   'PYMODULE'),
  ('multiprocessing.popen_fork',
   'c:\\program files\\python37-32\\lib\\multiprocessing\\popen_fork.py',
   'PYMODULE'),
  ('multiprocessing.popen_spawn_win32',
   'c:\\program files\\python37-32\\lib\\multiprocessing\\popen_spawn_win32.py',
   'PYMODULE'),
  ('subprocess',
   'c:\\program files\\python37-32\\lib\\subprocess.py',
   'PYMODULE'),
  ('multiprocessing.spawn',
   'c:\\program files\\python37-32\\lib\\multiprocessing\\spawn.py',
   'PYMODULE'),
  ('multiprocessing',
   'c:\\program files\\python37-32\\lib\\multiprocessing\\__init__.py',
   'PYMODULE'),
  ('os', 'c:\\program files\\python37-32\\lib\\os.py', 'PYMODULE'),
  ('stringprep',
   'c:\\program files\\python37-32\\lib\\stringprep.py',
   'PYMODULE'),
  ('typing', 'c:\\program files\\python37-32\\lib\\typing.py', 'PYMODULE'),
  ('_py_abc', 'c:\\program files\\python37-32\\lib\\_py_abc.py', 'PYMODULE'),
  ('tracemalloc',
   'c:\\program files\\python37-32\\lib\\tracemalloc.py',
   'PYMODULE'),
  ('pymap3d',
   'c:\\program files\\python37-32\\lib\\site-packages\\pymap3d\\__init__.py',
   'PYMODULE'),
  ('pymap3d.vallado',
   'c:\\program files\\python37-32\\lib\\site-packages\\pymap3d\\vallado.py',
   'PYMODULE'),
  ('pymap3d.eci',
   'c:\\program files\\python37-32\\lib\\site-packages\\pymap3d\\eci.py',
   'PYMODULE'),
  ('pymap3d.azelradec',
   'c:\\program files\\python37-32\\lib\\site-packages\\pymap3d\\azelradec.py',
   'PYMODULE'),
  ('pymap3d.timeconv',
   'c:\\program files\\python37-32\\lib\\site-packages\\pymap3d\\timeconv.py',
   'PYMODULE'),
  ('pymap3d.ellipsoid',
   'c:\\program files\\python37-32\\lib\\site-packages\\pymap3d\\ellipsoid.py',
   'PYMODULE'),
  ('pymap3d.sidereal',
   'c:\\program files\\python37-32\\lib\\site-packages\\pymap3d\\sidereal.py',
   'PYMODULE'),
  ('pymap3d.ecef',
   'c:\\program files\\python37-32\\lib\\site-packages\\pymap3d\\ecef.py',
   'PYMODULE'),
  ('pymap3d.utils',
   'c:\\program files\\python37-32\\lib\\site-packages\\pymap3d\\utils.py',
   'PYMODULE'),
  ('pymap3d.ned',
   'c:\\program files\\python37-32\\lib\\site-packages\\pymap3d\\ned.py',
   'PYMODULE'),
  ('pymap3d.enu',
   'c:\\program files\\python37-32\\lib\\site-packages\\pymap3d\\enu.py',
   'PYMODULE'),
  ('pymap3d.aer',
   'c:\\program files\\python37-32\\lib\\site-packages\\pymap3d\\aer.py',
   'PYMODULE'),
  ('ConnectionCallback', 'Z:\\src\\ConnectionCallback.py', 'PYMODULE'),
  ('myws', 'Z:\\src\\myws.py', 'PYMODULE'),
  ('SimpleWebSocketServer.SimpleWebSocketServer',
   'c:\\program '
   'files\\python37-32\\lib\\site-packages\\SimpleWebSocketServer\\SimpleWebSocketServer.py',
   'PYMODULE'),
  ('SimpleWebSocketServer',
   'c:\\program '
   'files\\python37-32\\lib\\site-packages\\SimpleWebSocketServer\\__init__.py',
   'PYMODULE'),
  ('tcp_server', 'Z:\\src\\tcp_server.py', 'PYMODULE'),
  ('logging',
   'c:\\program files\\python37-32\\lib\\logging\\__init__.py',
   'PYMODULE'),
  ('json',
   'c:\\program files\\python37-32\\lib\\json\\__init__.py',
   'PYMODULE'),
  ('json.encoder',
   'c:\\program files\\python37-32\\lib\\json\\encoder.py',
   'PYMODULE'),
  ('json.decoder',
   'c:\\program files\\python37-32\\lib\\json\\decoder.py',
   'PYMODULE'),
  ('json.scanner',
   'c:\\program files\\python37-32\\lib\\json\\scanner.py',
   'PYMODULE'),
  ('asyncio',
   'c:\\program files\\python37-32\\lib\\asyncio\\__init__.py',
   'PYMODULE'),
  ('asyncio.unix_events',
   'c:\\program files\\python37-32\\lib\\asyncio\\unix_events.py',
   'PYMODULE'),
  ('asyncio.log',
   'c:\\program files\\python37-32\\lib\\asyncio\\log.py',
   'PYMODULE'),
  ('asyncio.windows_events',
   'c:\\program files\\python37-32\\lib\\asyncio\\windows_events.py',
   'PYMODULE'),
  ('asyncio.windows_utils',
   'c:\\program files\\python37-32\\lib\\asyncio\\windows_utils.py',
   'PYMODULE'),
  ('asyncio.selector_events',
   'c:\\program files\\python37-32\\lib\\asyncio\\selector_events.py',
   'PYMODULE'),
  ('asyncio.proactor_events',
   'c:\\program files\\python37-32\\lib\\asyncio\\proactor_events.py',
   'PYMODULE'),
  ('asyncio.base_subprocess',
   'c:\\program files\\python37-32\\lib\\asyncio\\base_subprocess.py',
   'PYMODULE'),
  ('asyncio.subprocess',
   'c:\\program files\\python37-32\\lib\\asyncio\\subprocess.py',
   'PYMODULE'),
  ('asyncio.streams',
   'c:\\program files\\python37-32\\lib\\asyncio\\streams.py',
   'PYMODULE'),
  ('asyncio.queues',
   'c:\\program files\\python37-32\\lib\\asyncio\\queues.py',
   'PYMODULE'),
  ('asyncio.runners',
   'c:\\program files\\python37-32\\lib\\asyncio\\runners.py',
   'PYMODULE'),
  ('asyncio.tasks',
   'c:\\program files\\python37-32\\lib\\asyncio\\tasks.py',
   'PYMODULE'),
  ('concurrent.futures',
   'c:\\program files\\python37-32\\lib\\concurrent\\futures\\__init__.py',
   'PYMODULE'),
  ('concurrent.futures.thread',
   'c:\\program files\\python37-32\\lib\\concurrent\\futures\\thread.py',
   'PYMODULE'),
  ('concurrent.futures.process',
   'c:\\program files\\python37-32\\lib\\concurrent\\futures\\process.py',
   'PYMODULE'),
  ('concurrent.futures._base',
   'c:\\program files\\python37-32\\lib\\concurrent\\futures\\_base.py',
   'PYMODULE'),
  ('concurrent',
   'c:\\program files\\python37-32\\lib\\concurrent\\__init__.py',
   'PYMODULE'),
  ('asyncio.locks',
   'c:\\program files\\python37-32\\lib\\asyncio\\locks.py',
   'PYMODULE'),
  ('asyncio.base_tasks',
   'c:\\program files\\python37-32\\lib\\asyncio\\base_tasks.py',
   'PYMODULE'),
  ('asyncio.sslproto',
   'c:\\program files\\python37-32\\lib\\asyncio\\sslproto.py',
   'PYMODULE'),
  ('asyncio.transports',
   'c:\\program files\\python37-32\\lib\\asyncio\\transports.py',
   'PYMODULE'),
  ('asyncio.base_events',
   'c:\\program files\\python37-32\\lib\\asyncio\\base_events.py',
   'PYMODULE'),
  ('asyncio.protocols',
   'c:\\program files\\python37-32\\lib\\asyncio\\protocols.py',
   'PYMODULE'),
  ('asyncio.futures',
   'c:\\program files\\python37-32\\lib\\asyncio\\futures.py',
   'PYMODULE'),
  ('asyncio.events',
   'c:\\program files\\python37-32\\lib\\asyncio\\events.py',
   'PYMODULE'),
  ('asyncio.coroutines',
   'c:\\program files\\python37-32\\lib\\asyncio\\coroutines.py',
   'PYMODULE'),
  ('asyncio.base_futures',
   'c:\\program files\\python37-32\\lib\\asyncio\\base_futures.py',
   'PYMODULE'),
  ('asyncio.format_helpers',
   'c:\\program files\\python37-32\\lib\\asyncio\\format_helpers.py',
   'PYMODULE'),
  ('asyncio.constants',
   'c:\\program files\\python37-32\\lib\\asyncio\\constants.py',
   'PYMODULE')],
 [('python37.dll', 'c:\\program files\\python37-32\\python37.dll', 'BINARY'),
  ('VCRUNTIME140.dll',
   'c:\\program files\\python37-32\\VCRUNTIME140.dll',
   'BINARY'),
  ('api-ms-win-crt-math-l1-1-0.dll',
   'C:\\windows\\system32\\api-ms-win-crt-math-l1-1-0.dll',
   'BINARY'),
  ('api-ms-win-crt-stdio-l1-1-0.dll',
   'C:\\windows\\system32\\api-ms-win-crt-stdio-l1-1-0.dll',
   'BINARY'),
  ('api-ms-win-crt-runtime-l1-1-0.dll',
   'C:\\windows\\system32\\api-ms-win-crt-runtime-l1-1-0.dll',
   'BINARY'),
  ('api-ms-win-crt-locale-l1-1-0.dll',
   'C:\\windows\\system32\\api-ms-win-crt-locale-l1-1-0.dll',
   'BINARY'),
  ('api-ms-win-crt-heap-l1-1-0.dll',
   'C:\\windows\\system32\\api-ms-win-crt-heap-l1-1-0.dll',
   'BINARY'),
  ('api-ms-win-crt-filesystem-l1-1-0.dll',
   'C:\\windows\\system32\\api-ms-win-crt-filesystem-l1-1-0.dll',
   'BINARY'),
  ('api-ms-win-crt-string-l1-1-0.dll',
   'C:\\windows\\system32\\api-ms-win-crt-string-l1-1-0.dll',
   'BINARY'),
  ('api-ms-win-crt-convert-l1-1-0.dll',
   'C:\\windows\\system32\\api-ms-win-crt-convert-l1-1-0.dll',
   'BINARY'),
  ('api-ms-win-crt-environment-l1-1-0.dll',
   'C:\\windows\\system32\\api-ms-win-crt-environment-l1-1-0.dll',
   'BINARY'),
  ('api-ms-win-crt-time-l1-1-0.dll',
   'C:\\windows\\system32\\api-ms-win-crt-time-l1-1-0.dll',
   'BINARY'),
  ('api-ms-win-crt-conio-l1-1-0.dll',
   'C:\\windows\\system32\\api-ms-win-crt-conio-l1-1-0.dll',
   'BINARY'),
  ('api-ms-win-crt-process-l1-1-0.dll',
   'C:\\windows\\system32\\api-ms-win-crt-process-l1-1-0.dll',
   'BINARY'),
  ('_multiprocessing',
   'c:\\program files\\python37-32\\DLLs\\_multiprocessing.pyd',
   'EXTENSION'),
  ('_hashlib',
   'c:\\program files\\python37-32\\DLLs\\_hashlib.pyd',
   'EXTENSION'),
  ('_lzma', 'c:\\program files\\python37-32\\DLLs\\_lzma.pyd', 'EXTENSION'),
  ('_bz2', 'c:\\program files\\python37-32\\DLLs\\_bz2.pyd', 'EXTENSION'),
  ('_socket', 'c:\\program files\\python37-32\\DLLs\\_socket.pyd', 'EXTENSION'),
  ('select', 'c:\\program files\\python37-32\\DLLs\\select.pyd', 'EXTENSION'),
  ('_ctypes', 'c:\\program files\\python37-32\\DLLs\\_ctypes.pyd', 'EXTENSION'),
  ('_queue', 'c:\\program files\\python37-32\\DLLs\\_queue.pyd', 'EXTENSION'),
  ('pyexpat', 'c:\\program files\\python37-32\\DLLs\\pyexpat.pyd', 'EXTENSION'),
  ('_ssl', 'c:\\program files\\python37-32\\DLLs\\_ssl.pyd', 'EXTENSION'),
  ('unicodedata',
   'c:\\program files\\python37-32\\DLLs\\unicodedata.pyd',
   'EXTENSION'),
  ('_decimal',
   'c:\\program files\\python37-32\\DLLs\\_decimal.pyd',
   'EXTENSION'),
  ('_overlapped',
   'c:\\program files\\python37-32\\DLLs\\_overlapped.pyd',
   'EXTENSION'),
  ('_asyncio',
   'c:\\program files\\python37-32\\DLLs\\_asyncio.pyd',
   'EXTENSION'),
  ('libcrypto-1_1.dll',
   'c:\\program files\\python37-32\\DLLs\\libcrypto-1_1.dll',
   'BINARY'),
  ('libssl-1_1.dll',
   'c:\\program files\\python37-32\\DLLs\\libssl-1_1.dll',
   'BINARY'),
  ('api-ms-win-crt-utility-l1-1-0.dll',
   'C:\\windows\\system32\\api-ms-win-crt-utility-l1-1-0.dll',
   'BINARY')],
 [],
 [],
 [('base_library.zip', 'Z:\\src\\build\\tcp2map\\base_library.zip', 'DATA')],
 [])
