('Z:\\src\\build\\tcp2map\\PKG-00.pkg',
 {'BINARY': 1,
  'DATA': 1,
  'EXECUTABLE': 1,
  'EXTENSION': 1,
  'PYMODULE': 1,
  'PYSOURCE': 1,
  'PYZ': 0,
  'SPLASH': 1},
 [('PYZ-00.pyz', 'Z:\\src\\build\\tcp2map\\PYZ-00.pyz', 'PYZ'),
  ('struct', 'c:\\program files\\python37-32\\lib\\struct.pyo', 'PYMODULE'),
  ('pyimod01_os_path',
   'c:\\program '
   'files\\python37-32\\lib\\site-packages\\PyInstaller\\loader\\pyimod01_os_path.pyc',
   'PYMODULE'),
  ('pyimod02_archive',
   'c:\\program '
   'files\\python37-32\\lib\\site-packages\\PyInstaller\\loader\\pyimod02_archive.pyc',
   'PYMODULE'),
  ('pyimod03_importers',
   'c:\\program '
   'files\\python37-32\\lib\\site-packages\\PyInstaller\\loader\\pyimod03_importers.pyc',
   'PYMODULE'),
  ('pyimod04_ctypes',
   'c:\\program '
   'files\\python37-32\\lib\\site-packages\\PyInstaller\\loader\\pyimod04_ctypes.pyc',
   'PYMODULE'),
  ('pyiboot01_bootstrap',
   'c:\\program '
   'files\\python37-32\\lib\\site-packages\\PyInstaller\\loader\\pyiboot01_bootstrap.py',
   'PYSOURCE'),
  ('pyi_rth_pkgutil',
   'c:\\program '
   'files\\python37-32\\lib\\site-packages\\PyInstaller\\hooks\\rthooks\\pyi_rth_pkgutil.py',
   'PYSOURCE'),
  ('pyi_rth_inspect',
   'c:\\program '
   'files\\python37-32\\lib\\site-packages\\PyInstaller\\hooks\\rthooks\\pyi_rth_inspect.py',
   'PYSOURCE'),
  ('pyi_rth_multiprocessing',
   'c:\\program '
   'files\\python37-32\\lib\\site-packages\\PyInstaller\\hooks\\rthooks\\pyi_rth_multiprocessing.py',
   'PYSOURCE'),
  ('tcp2map', 'Z:\\src\\tcp2map.py', 'PYSOURCE'),
  ('python37.dll', 'c:\\program files\\python37-32\\python37.dll', 'BINARY'),
  ('VCRUNTIME140.dll',
   'c:\\program files\\python37-32\\VCRUNTIME140.dll',
   'BINARY'),
  ('api-ms-win-crt-math-l1-1-0.dll',
   'C:\\windows\\system32\\api-ms-win-crt-math-l1-1-0.dll',
   'BINARY'),
  ('api-ms-win-crt-stdio-l1-1-0.dll',
   'C:\\windows\\system32\\api-ms-win-crt-stdio-l1-1-0.dll',
   'BINARY'),
  ('api-ms-win-crt-runtime-l1-1-0.dll',
   'C:\\windows\\system32\\api-ms-win-crt-runtime-l1-1-0.dll',
   'BINARY'),
  ('api-ms-win-crt-locale-l1-1-0.dll',
   'C:\\windows\\system32\\api-ms-win-crt-locale-l1-1-0.dll',
   'BINARY'),
  ('api-ms-win-crt-heap-l1-1-0.dll',
   'C:\\windows\\system32\\api-ms-win-crt-heap-l1-1-0.dll',
   'BINARY'),
  ('api-ms-win-crt-filesystem-l1-1-0.dll',
   'C:\\windows\\system32\\api-ms-win-crt-filesystem-l1-1-0.dll',
   'BINARY'),
  ('api-ms-win-crt-string-l1-1-0.dll',
   'C:\\windows\\system32\\api-ms-win-crt-string-l1-1-0.dll',
   'BINARY'),
  ('api-ms-win-crt-convert-l1-1-0.dll',
   'C:\\windows\\system32\\api-ms-win-crt-convert-l1-1-0.dll',
   'BINARY'),
  ('api-ms-win-crt-environment-l1-1-0.dll',
   'C:\\windows\\system32\\api-ms-win-crt-environment-l1-1-0.dll',
   'BINARY'),
  ('api-ms-win-crt-time-l1-1-0.dll',
   'C:\\windows\\system32\\api-ms-win-crt-time-l1-1-0.dll',
   'BINARY'),
  ('api-ms-win-crt-conio-l1-1-0.dll',
   'C:\\windows\\system32\\api-ms-win-crt-conio-l1-1-0.dll',
   'BINARY'),
  ('api-ms-win-crt-process-l1-1-0.dll',
   'C:\\windows\\system32\\api-ms-win-crt-process-l1-1-0.dll',
   'BINARY'),
  ('_multiprocessing',
   'c:\\program files\\python37-32\\DLLs\\_multiprocessing.pyd',
   'EXTENSION'),
  ('_hashlib',
   'c:\\program files\\python37-32\\DLLs\\_hashlib.pyd',
   'EXTENSION'),
  ('_lzma', 'c:\\program files\\python37-32\\DLLs\\_lzma.pyd', 'EXTENSION'),
  ('_bz2', 'c:\\program files\\python37-32\\DLLs\\_bz2.pyd', 'EXTENSION'),
  ('_socket', 'c:\\program files\\python37-32\\DLLs\\_socket.pyd', 'EXTENSION'),
  ('select', 'c:\\program files\\python37-32\\DLLs\\select.pyd', 'EXTENSION'),
  ('_ctypes', 'c:\\program files\\python37-32\\DLLs\\_ctypes.pyd', 'EXTENSION'),
  ('_queue', 'c:\\program files\\python37-32\\DLLs\\_queue.pyd', 'EXTENSION'),
  ('pyexpat', 'c:\\program files\\python37-32\\DLLs\\pyexpat.pyd', 'EXTENSION'),
  ('_ssl', 'c:\\program files\\python37-32\\DLLs\\_ssl.pyd', 'EXTENSION'),
  ('unicodedata',
   'c:\\program files\\python37-32\\DLLs\\unicodedata.pyd',
   'EXTENSION'),
  ('_decimal',
   'c:\\program files\\python37-32\\DLLs\\_decimal.pyd',
   'EXTENSION'),
  ('_overlapped',
   'c:\\program files\\python37-32\\DLLs\\_overlapped.pyd',
   'EXTENSION'),
  ('_asyncio',
   'c:\\program files\\python37-32\\DLLs\\_asyncio.pyd',
   'EXTENSION'),
  ('libcrypto-1_1.dll',
   'c:\\program files\\python37-32\\DLLs\\libcrypto-1_1.dll',
   'BINARY'),
  ('libssl-1_1.dll',
   'c:\\program files\\python37-32\\DLLs\\libssl-1_1.dll',
   'BINARY'),
  ('api-ms-win-crt-utility-l1-1-0.dll',
   'C:\\windows\\system32\\api-ms-win-crt-utility-l1-1-0.dll',
   'BINARY'),
  ('base_library.zip', 'Z:\\src\\build\\tcp2map\\base_library.zip', 'DATA'),
  ('tcp2map.exe.manifest',
   'Z:\\src\\build\\tcp2map\\tcp2map.exe.manifest',
   'BINARY'),
  ('pyi-windows-manifest-filename tcp2map.exe.manifest', '', 'OPTION')],
 False,
 False,
 False,
 [],
 None,
 None,
 None)
