('/Users/yangxuebin/yxb/code/udp2map/build/PathSimTCPClient/PKG-00.pkg',
 {'BINARY': 1,
  'DATA': 1,
  'EXECUTABLE': 1,
  'EXTENSION': 1,
  'PYMODULE': 1,
  'PYSOURCE': 1,
  'PYZ': 0,
  'SPLASH': 1},
 [('PYZ-00.pyz',
   '/Users/yangxuebin/yxb/code/udp2map/build/PathSimTCPClient/PYZ-00.pyz',
   'PYZ'),
  ('lib-dynload/_struct',
   '/Library/Developer/CommandLineTools/Library/Frameworks/Python3.framework/Versions/3.8/lib/python3.8/lib-dynload/_struct.cpython-38-darwin.so',
   'EXTENSION'),
  ('lib-dynload/zlib',
   '/Library/Developer/CommandLineTools/Library/Frameworks/Python3.framework/Versions/3.8/lib/python3.8/lib-dynload/zlib.cpython-38-darwin.so',
   'EXTENSION'),
  ('struct',
   '/Users/yangxuebin/yxb/code/udp2map/build/PathSimTCPClient/localpycos/struct.pyo',
   'PYMODULE'),
  ('pyimod01_os_path',
   '/Users/yangxuebin/yxb/code/udp2map/venv/lib/python3.8/site-packages/PyInstaller/loader/pyimod01_os_path.pyc',
   'PYMODULE'),
  ('pyimod02_archive',
   '/Users/yangxuebin/yxb/code/udp2map/venv/lib/python3.8/site-packages/PyInstaller/loader/pyimod02_archive.pyc',
   'PYMODULE'),
  ('pyimod03_importers',
   '/Users/yangxuebin/yxb/code/udp2map/venv/lib/python3.8/site-packages/PyInstaller/loader/pyimod03_importers.pyc',
   'PYMODULE'),
  ('pyimod04_ctypes',
   '/Users/yangxuebin/yxb/code/udp2map/venv/lib/python3.8/site-packages/PyInstaller/loader/pyimod04_ctypes.pyc',
   'PYMODULE'),
  ('pyiboot01_bootstrap',
   '/Users/yangxuebin/yxb/code/udp2map/venv/lib/python3.8/site-packages/PyInstaller/loader/pyiboot01_bootstrap.py',
   'PYSOURCE'),
  ('pyi_rth_pkgutil',
   '/Users/yangxuebin/yxb/code/udp2map/venv/lib/python3.8/site-packages/PyInstaller/hooks/rthooks/pyi_rth_pkgutil.py',
   'PYSOURCE'),
  ('pyi_rth_multiprocessing',
   '/Users/yangxuebin/yxb/code/udp2map/venv/lib/python3.8/site-packages/PyInstaller/hooks/rthooks/pyi_rth_multiprocessing.py',
   'PYSOURCE'),
  ('pyi_rth_inspect',
   '/Users/yangxuebin/yxb/code/udp2map/venv/lib/python3.8/site-packages/PyInstaller/hooks/rthooks/pyi_rth_inspect.py',
   'PYSOURCE'),
  ('PathSimTCPClient',
   '/Users/yangxuebin/yxb/code/udp2map/PathSimTCPClient.py',
   'PYSOURCE'),
  ('Python3',
   '/Library/Developer/CommandLineTools/Library/Frameworks/Python3.framework/Versions/3.8/Resources/Python.app/Contents/MacOS/../../../../Python3',
   'BINARY'),
  ('lib-dynload/_lzma',
   '/Library/Developer/CommandLineTools/Library/Frameworks/Python3.framework/Versions/3.8/lib/python3.8/lib-dynload/_lzma.cpython-38-darwin.so',
   'EXTENSION'),
  ('lib-dynload/_bz2',
   '/Library/Developer/CommandLineTools/Library/Frameworks/Python3.framework/Versions/3.8/lib/python3.8/lib-dynload/_bz2.cpython-38-darwin.so',
   'EXTENSION'),
  ('lib-dynload/resource',
   '/Library/Developer/CommandLineTools/Library/Frameworks/Python3.framework/Versions/3.8/lib/python3.8/lib-dynload/resource.cpython-38-darwin.so',
   'EXTENSION'),
  ('lib-dynload/grp',
   '/Library/Developer/CommandLineTools/Library/Frameworks/Python3.framework/Versions/3.8/lib/python3.8/lib-dynload/grp.cpython-38-darwin.so',
   'EXTENSION'),
  ('lib-dynload/binascii',
   '/Library/Developer/CommandLineTools/Library/Frameworks/Python3.framework/Versions/3.8/lib/python3.8/lib-dynload/binascii.cpython-38-darwin.so',
   'EXTENSION'),
  ('lib-dynload/unicodedata',
   '/Library/Developer/CommandLineTools/Library/Frameworks/Python3.framework/Versions/3.8/lib/python3.8/lib-dynload/unicodedata.cpython-38-darwin.so',
   'EXTENSION'),
  ('lib-dynload/_datetime',
   '/Library/Developer/CommandLineTools/Library/Frameworks/Python3.framework/Versions/3.8/lib/python3.8/lib-dynload/_datetime.cpython-38-darwin.so',
   'EXTENSION'),
  ('lib-dynload/_random',
   '/Library/Developer/CommandLineTools/Library/Frameworks/Python3.framework/Versions/3.8/lib/python3.8/lib-dynload/_random.cpython-38-darwin.so',
   'EXTENSION'),
  ('lib-dynload/select',
   '/Library/Developer/CommandLineTools/Library/Frameworks/Python3.framework/Versions/3.8/lib/python3.8/lib-dynload/select.cpython-38-darwin.so',
   'EXTENSION'),
  ('lib-dynload/_posixsubprocess',
   '/Library/Developer/CommandLineTools/Library/Frameworks/Python3.framework/Versions/3.8/lib/python3.8/lib-dynload/_posixsubprocess.cpython-38-darwin.so',
   'EXTENSION'),
  ('lib-dynload/_ssl',
   '/Library/Developer/CommandLineTools/Library/Frameworks/Python3.framework/Versions/3.8/lib/python3.8/lib-dynload/_ssl.cpython-38-darwin.so',
   'EXTENSION'),
  ('lib-dynload/_asyncio',
   '/Library/Developer/CommandLineTools/Library/Frameworks/Python3.framework/Versions/3.8/lib/python3.8/lib-dynload/_asyncio.cpython-38-darwin.so',
   'EXTENSION'),
  ('lib-dynload/_contextvars',
   '/Library/Developer/CommandLineTools/Library/Frameworks/Python3.framework/Versions/3.8/lib/python3.8/lib-dynload/_contextvars.cpython-38-darwin.so',
   'EXTENSION'),
  ('lib-dynload/_queue',
   '/Library/Developer/CommandLineTools/Library/Frameworks/Python3.framework/Versions/3.8/lib/python3.8/lib-dynload/_queue.cpython-38-darwin.so',
   'EXTENSION'),
  ('lib-dynload/mmap',
   '/Library/Developer/CommandLineTools/Library/Frameworks/Python3.framework/Versions/3.8/lib/python3.8/lib-dynload/mmap.cpython-38-darwin.so',
   'EXTENSION'),
  ('lib-dynload/_posixshmem',
   '/Library/Developer/CommandLineTools/Library/Frameworks/Python3.framework/Versions/3.8/lib/python3.8/lib-dynload/_posixshmem.cpython-38-darwin.so',
   'EXTENSION'),
  ('lib-dynload/_ctypes',
   '/Library/Developer/CommandLineTools/Library/Frameworks/Python3.framework/Versions/3.8/lib/python3.8/lib-dynload/_ctypes.cpython-38-darwin.so',
   'EXTENSION'),
  ('lib-dynload/array',
   '/Library/Developer/CommandLineTools/Library/Frameworks/Python3.framework/Versions/3.8/lib/python3.8/lib-dynload/array.cpython-38-darwin.so',
   'EXTENSION'),
  ('lib-dynload/_multiprocessing',
   '/Library/Developer/CommandLineTools/Library/Frameworks/Python3.framework/Versions/3.8/lib/python3.8/lib-dynload/_multiprocessing.cpython-38-darwin.so',
   'EXTENSION'),
  ('lib-dynload/pyexpat',
   '/Library/Developer/CommandLineTools/Library/Frameworks/Python3.framework/Versions/3.8/lib/python3.8/lib-dynload/pyexpat.cpython-38-darwin.so',
   'EXTENSION'),
  ('lib-dynload/_scproxy',
   '/Library/Developer/CommandLineTools/Library/Frameworks/Python3.framework/Versions/3.8/lib/python3.8/lib-dynload/_scproxy.cpython-38-darwin.so',
   'EXTENSION'),
  ('lib-dynload/termios',
   '/Library/Developer/CommandLineTools/Library/Frameworks/Python3.framework/Versions/3.8/lib/python3.8/lib-dynload/termios.cpython-38-darwin.so',
   'EXTENSION'),
  ('lib-dynload/_decimal',
   '/Library/Developer/CommandLineTools/Library/Frameworks/Python3.framework/Versions/3.8/lib/python3.8/lib-dynload/_decimal.cpython-38-darwin.so',
   'EXTENSION'),
  ('lib-dynload/readline',
   '/Library/Developer/CommandLineTools/Library/Frameworks/Python3.framework/Versions/3.8/lib/python3.8/lib-dynload/readline.cpython-38-darwin.so',
   'EXTENSION'),
  ('lib-dynload/_pickle',
   '/Library/Developer/CommandLineTools/Library/Frameworks/Python3.framework/Versions/3.8/lib/python3.8/lib-dynload/_pickle.cpython-38-darwin.so',
   'EXTENSION'),
  ('lib-dynload/_hashlib',
   '/Library/Developer/CommandLineTools/Library/Frameworks/Python3.framework/Versions/3.8/lib/python3.8/lib-dynload/_hashlib.cpython-38-darwin.so',
   'EXTENSION'),
  ('lib-dynload/_sha3',
   '/Library/Developer/CommandLineTools/Library/Frameworks/Python3.framework/Versions/3.8/lib/python3.8/lib-dynload/_sha3.cpython-38-darwin.so',
   'EXTENSION'),
  ('lib-dynload/_blake2',
   '/Library/Developer/CommandLineTools/Library/Frameworks/Python3.framework/Versions/3.8/lib/python3.8/lib-dynload/_blake2.cpython-38-darwin.so',
   'EXTENSION'),
  ('lib-dynload/_sha256',
   '/Library/Developer/CommandLineTools/Library/Frameworks/Python3.framework/Versions/3.8/lib/python3.8/lib-dynload/_sha256.cpython-38-darwin.so',
   'EXTENSION'),
  ('lib-dynload/_md5',
   '/Library/Developer/CommandLineTools/Library/Frameworks/Python3.framework/Versions/3.8/lib/python3.8/lib-dynload/_md5.cpython-38-darwin.so',
   'EXTENSION'),
  ('lib-dynload/_sha1',
   '/Library/Developer/CommandLineTools/Library/Frameworks/Python3.framework/Versions/3.8/lib/python3.8/lib-dynload/_sha1.cpython-38-darwin.so',
   'EXTENSION'),
  ('lib-dynload/_sha512',
   '/Library/Developer/CommandLineTools/Library/Frameworks/Python3.framework/Versions/3.8/lib/python3.8/lib-dynload/_sha512.cpython-38-darwin.so',
   'EXTENSION'),
  ('lib-dynload/_bisect',
   '/Library/Developer/CommandLineTools/Library/Frameworks/Python3.framework/Versions/3.8/lib/python3.8/lib-dynload/_bisect.cpython-38-darwin.so',
   'EXTENSION'),
  ('lib-dynload/_csv',
   '/Library/Developer/CommandLineTools/Library/Frameworks/Python3.framework/Versions/3.8/lib/python3.8/lib-dynload/_csv.cpython-38-darwin.so',
   'EXTENSION'),
  ('lib-dynload/_opcode',
   '/Library/Developer/CommandLineTools/Library/Frameworks/Python3.framework/Versions/3.8/lib/python3.8/lib-dynload/_opcode.cpython-38-darwin.so',
   'EXTENSION'),
  ('lib-dynload/_multibytecodec',
   '/Library/Developer/CommandLineTools/Library/Frameworks/Python3.framework/Versions/3.8/lib/python3.8/lib-dynload/_multibytecodec.cpython-38-darwin.so',
   'EXTENSION'),
  ('lib-dynload/_codecs_iso2022',
   '/Library/Developer/CommandLineTools/Library/Frameworks/Python3.framework/Versions/3.8/lib/python3.8/lib-dynload/_codecs_iso2022.cpython-38-darwin.so',
   'EXTENSION'),
  ('lib-dynload/_codecs_kr',
   '/Library/Developer/CommandLineTools/Library/Frameworks/Python3.framework/Versions/3.8/lib/python3.8/lib-dynload/_codecs_kr.cpython-38-darwin.so',
   'EXTENSION'),
  ('lib-dynload/_codecs_jp',
   '/Library/Developer/CommandLineTools/Library/Frameworks/Python3.framework/Versions/3.8/lib/python3.8/lib-dynload/_codecs_jp.cpython-38-darwin.so',
   'EXTENSION'),
  ('lib-dynload/_codecs_hk',
   '/Library/Developer/CommandLineTools/Library/Frameworks/Python3.framework/Versions/3.8/lib/python3.8/lib-dynload/_codecs_hk.cpython-38-darwin.so',
   'EXTENSION'),
  ('lib-dynload/_codecs_tw',
   '/Library/Developer/CommandLineTools/Library/Frameworks/Python3.framework/Versions/3.8/lib/python3.8/lib-dynload/_codecs_tw.cpython-38-darwin.so',
   'EXTENSION'),
  ('lib-dynload/_codecs_cn',
   '/Library/Developer/CommandLineTools/Library/Frameworks/Python3.framework/Versions/3.8/lib/python3.8/lib-dynload/_codecs_cn.cpython-38-darwin.so',
   'EXTENSION'),
  ('lib-dynload/_heapq',
   '/Library/Developer/CommandLineTools/Library/Frameworks/Python3.framework/Versions/3.8/lib/python3.8/lib-dynload/_heapq.cpython-38-darwin.so',
   'EXTENSION'),
  ('lib-dynload/_json',
   '/Library/Developer/CommandLineTools/Library/Frameworks/Python3.framework/Versions/3.8/lib/python3.8/lib-dynload/_json.cpython-38-darwin.so',
   'EXTENSION'),
  ('lib-dynload/_socket',
   '/Library/Developer/CommandLineTools/Library/Frameworks/Python3.framework/Versions/3.8/lib/python3.8/lib-dynload/_socket.cpython-38-darwin.so',
   'EXTENSION'),
  ('lib-dynload/math',
   '/Library/Developer/CommandLineTools/Library/Frameworks/Python3.framework/Versions/3.8/lib/python3.8/lib-dynload/math.cpython-38-darwin.so',
   'EXTENSION'),
  ('base_library.zip',
   '/Users/yangxuebin/yxb/code/udp2map/build/PathSimTCPClient/base_library.zip',
   'DATA')],
 False,
 False,
 False,
 [],
 'arm64',
 None,
 None)
