('/Users/yangxuebin/yxb/code/udp2map/build/PathSimTCPClient/PYZ-00.pyz',
 [('inspect',
   '/Library/Developer/CommandLineTools/Library/Frameworks/Python3.framework/Versions/3.8/lib/python3.8/inspect.py',
   'PYMODULE'),
  ('importlib',
   '/Library/Developer/CommandLineTools/Library/Frameworks/Python3.framework/Versions/3.8/lib/python3.8/importlib/__init__.py',
   'PYMODULE'),
  ('importlib._bootstrap_external',
   '/Library/Developer/CommandLineTools/Library/Frameworks/Python3.framework/Versions/3.8/lib/python3.8/importlib/_bootstrap_external.py',
   'PYMODULE'),
  ('importlib.metadata',
   '/Library/Developer/CommandLineTools/Library/Frameworks/Python3.framework/Versions/3.8/lib/python3.8/importlib/metadata.py',
   'PYMODULE'),
  ('importlib.abc',
   '/Library/Developer/CommandLineTools/Library/Frameworks/Python3.framework/Versions/3.8/lib/python3.8/importlib/abc.py',
   'PYMODULE'),
  ('contextlib',
   '/Library/Developer/CommandLineTools/Library/Frameworks/Python3.framework/Versions/3.8/lib/python3.8/contextlib.py',
   'PYMODULE'),
  ('configparser',
   '/Library/Developer/CommandLineTools/Library/Frameworks/Python3.framework/Versions/3.8/lib/python3.8/configparser.py',
   'PYMODULE'),
  ('posixpath',
   '/Library/Developer/CommandLineTools/Library/Frameworks/Python3.framework/Versions/3.8/lib/python3.8/posixpath.py',
   'PYMODULE'),
  ('genericpath',
   '/Library/Developer/CommandLineTools/Library/Frameworks/Python3.framework/Versions/3.8/lib/python3.8/genericpath.py',
   'PYMODULE'),
  ('stat',
   '/Library/Developer/CommandLineTools/Library/Frameworks/Python3.framework/Versions/3.8/lib/python3.8/stat.py',
   'PYMODULE'),
  ('zipfile',
   '/Library/Developer/CommandLineTools/Library/Frameworks/Python3.framework/Versions/3.8/lib/python3.8/zipfile.py',
   'PYMODULE'),
  ('py_compile',
   '/Library/Developer/CommandLineTools/Library/Frameworks/Python3.framework/Versions/3.8/lib/python3.8/py_compile.py',
   'PYMODULE'),
  ('lzma',
   '/Library/Developer/CommandLineTools/Library/Frameworks/Python3.framework/Versions/3.8/lib/python3.8/lzma.py',
   'PYMODULE'),
  ('_compression',
   '/Library/Developer/CommandLineTools/Library/Frameworks/Python3.framework/Versions/3.8/lib/python3.8/_compression.py',
   'PYMODULE'),
  ('bz2',
   '/Library/Developer/CommandLineTools/Library/Frameworks/Python3.framework/Versions/3.8/lib/python3.8/bz2.py',
   'PYMODULE'),
  ('threading',
   '/Library/Developer/CommandLineTools/Library/Frameworks/Python3.framework/Versions/3.8/lib/python3.8/threading.py',
   'PYMODULE'),
  ('_threading_local',
   '/Library/Developer/CommandLineTools/Library/Frameworks/Python3.framework/Versions/3.8/lib/python3.8/_threading_local.py',
   'PYMODULE'),
  ('struct',
   '/Library/Developer/CommandLineTools/Library/Frameworks/Python3.framework/Versions/3.8/lib/python3.8/struct.py',
   'PYMODULE'),
  ('shutil',
   '/Library/Developer/CommandLineTools/Library/Frameworks/Python3.framework/Versions/3.8/lib/python3.8/shutil.py',
   'PYMODULE'),
  ('tarfile',
   '/Library/Developer/CommandLineTools/Library/Frameworks/Python3.framework/Versions/3.8/lib/python3.8/tarfile.py',
   'PYMODULE'),
  ('gzip',
   '/Library/Developer/CommandLineTools/Library/Frameworks/Python3.framework/Versions/3.8/lib/python3.8/gzip.py',
   'PYMODULE'),
  ('copy',
   '/Library/Developer/CommandLineTools/Library/Frameworks/Python3.framework/Versions/3.8/lib/python3.8/copy.py',
   'PYMODULE'),
  ('fnmatch',
   '/Library/Developer/CommandLineTools/Library/Frameworks/Python3.framework/Versions/3.8/lib/python3.8/fnmatch.py',
   'PYMODULE'),
  ('importlib.util',
   '/Library/Developer/CommandLineTools/Library/Frameworks/Python3.framework/Versions/3.8/lib/python3.8/importlib/util.py',
   'PYMODULE'),
  ('pathlib',
   '/Library/Developer/CommandLineTools/Library/Frameworks/Python3.framework/Versions/3.8/lib/python3.8/pathlib.py',
   'PYMODULE'),
  ('urllib.parse',
   '/Library/Developer/CommandLineTools/Library/Frameworks/Python3.framework/Versions/3.8/lib/python3.8/urllib/parse.py',
   'PYMODULE'),
  ('urllib',
   '/Library/Developer/CommandLineTools/Library/Frameworks/Python3.framework/Versions/3.8/lib/python3.8/urllib/__init__.py',
   'PYMODULE'),
  ('ntpath',
   '/Library/Developer/CommandLineTools/Library/Frameworks/Python3.framework/Versions/3.8/lib/python3.8/ntpath.py',
   'PYMODULE'),
  ('string',
   '/Library/Developer/CommandLineTools/Library/Frameworks/Python3.framework/Versions/3.8/lib/python3.8/string.py',
   'PYMODULE'),
  ('email',
   '/Library/Developer/CommandLineTools/Library/Frameworks/Python3.framework/Versions/3.8/lib/python3.8/email/__init__.py',
   'PYMODULE'),
  ('email.parser',
   '/Library/Developer/CommandLineTools/Library/Frameworks/Python3.framework/Versions/3.8/lib/python3.8/email/parser.py',
   'PYMODULE'),
  ('email._policybase',
   '/Library/Developer/CommandLineTools/Library/Frameworks/Python3.framework/Versions/3.8/lib/python3.8/email/_policybase.py',
   'PYMODULE'),
  ('email.utils',
   '/Library/Developer/CommandLineTools/Library/Frameworks/Python3.framework/Versions/3.8/lib/python3.8/email/utils.py',
   'PYMODULE'),
  ('email._parseaddr',
   '/Library/Developer/CommandLineTools/Library/Frameworks/Python3.framework/Versions/3.8/lib/python3.8/email/_parseaddr.py',
   'PYMODULE'),
  ('calendar',
   '/Library/Developer/CommandLineTools/Library/Frameworks/Python3.framework/Versions/3.8/lib/python3.8/calendar.py',
   'PYMODULE'),
  ('datetime',
   '/Library/Developer/CommandLineTools/Library/Frameworks/Python3.framework/Versions/3.8/lib/python3.8/datetime.py',
   'PYMODULE'),
  ('_strptime',
   '/Library/Developer/CommandLineTools/Library/Frameworks/Python3.framework/Versions/3.8/lib/python3.8/_strptime.py',
   'PYMODULE'),
  ('random',
   '/Library/Developer/CommandLineTools/Library/Frameworks/Python3.framework/Versions/3.8/lib/python3.8/random.py',
   'PYMODULE'),
  ('hashlib',
   '/Library/Developer/CommandLineTools/Library/Frameworks/Python3.framework/Versions/3.8/lib/python3.8/hashlib.py',
   'PYMODULE'),
  ('logging',
   '/Library/Developer/CommandLineTools/Library/Frameworks/Python3.framework/Versions/3.8/lib/python3.8/logging/__init__.py',
   'PYMODULE'),
  ('pickle',
   '/Library/Developer/CommandLineTools/Library/Frameworks/Python3.framework/Versions/3.8/lib/python3.8/pickle.py',
   'PYMODULE'),
  ('pprint',
   '/Library/Developer/CommandLineTools/Library/Frameworks/Python3.framework/Versions/3.8/lib/python3.8/pprint.py',
   'PYMODULE'),
  ('doctest',
   '/Library/Developer/CommandLineTools/Library/Frameworks/Python3.framework/Versions/3.8/lib/python3.8/doctest.py',
   'PYMODULE'),
  ('unittest',
   '/Library/Developer/CommandLineTools/Library/Frameworks/Python3.framework/Versions/3.8/lib/python3.8/unittest/__init__.py',
   'PYMODULE'),
  ('unittest.signals',
   '/Library/Developer/CommandLineTools/Library/Frameworks/Python3.framework/Versions/3.8/lib/python3.8/unittest/signals.py',
   'PYMODULE'),
  ('signal',
   '/Library/Developer/CommandLineTools/Library/Frameworks/Python3.framework/Versions/3.8/lib/python3.8/signal.py',
   'PYMODULE'),
  ('unittest.main',
   '/Library/Developer/CommandLineTools/Library/Frameworks/Python3.framework/Versions/3.8/lib/python3.8/unittest/main.py',
   'PYMODULE'),
  ('unittest.runner',
   '/Library/Developer/CommandLineTools/Library/Frameworks/Python3.framework/Versions/3.8/lib/python3.8/unittest/runner.py',
   'PYMODULE'),
  ('unittest.loader',
   '/Library/Developer/CommandLineTools/Library/Frameworks/Python3.framework/Versions/3.8/lib/python3.8/unittest/loader.py',
   'PYMODULE'),
  ('unittest.suite',
   '/Library/Developer/CommandLineTools/Library/Frameworks/Python3.framework/Versions/3.8/lib/python3.8/unittest/suite.py',
   'PYMODULE'),
  ('unittest.case',
   '/Library/Developer/CommandLineTools/Library/Frameworks/Python3.framework/Versions/3.8/lib/python3.8/unittest/case.py',
   'PYMODULE'),
  ('unittest.async_case',
   '/Library/Developer/CommandLineTools/Library/Frameworks/Python3.framework/Versions/3.8/lib/python3.8/unittest/async_case.py',
   'PYMODULE'),
  ('asyncio',
   '/Library/Developer/CommandLineTools/Library/Frameworks/Python3.framework/Versions/3.8/lib/python3.8/asyncio/__init__.py',
   'PYMODULE'),
  ('asyncio.unix_events',
   '/Library/Developer/CommandLineTools/Library/Frameworks/Python3.framework/Versions/3.8/lib/python3.8/asyncio/unix_events.py',
   'PYMODULE'),
  ('asyncio.log',
   '/Library/Developer/CommandLineTools/Library/Frameworks/Python3.framework/Versions/3.8/lib/python3.8/asyncio/log.py',
   'PYMODULE'),
  ('subprocess',
   '/Library/Developer/CommandLineTools/Library/Frameworks/Python3.framework/Versions/3.8/lib/python3.8/subprocess.py',
   'PYMODULE'),
  ('selectors',
   '/Library/Developer/CommandLineTools/Library/Frameworks/Python3.framework/Versions/3.8/lib/python3.8/selectors.py',
   'PYMODULE'),
  ('asyncio.windows_events',
   '/Library/Developer/CommandLineTools/Library/Frameworks/Python3.framework/Versions/3.8/lib/python3.8/asyncio/windows_events.py',
   'PYMODULE'),
  ('asyncio.windows_utils',
   '/Library/Developer/CommandLineTools/Library/Frameworks/Python3.framework/Versions/3.8/lib/python3.8/asyncio/windows_utils.py',
   'PYMODULE'),
  ('tempfile',
   '/Library/Developer/CommandLineTools/Library/Frameworks/Python3.framework/Versions/3.8/lib/python3.8/tempfile.py',
   'PYMODULE'),
  ('asyncio.selector_events',
   '/Library/Developer/CommandLineTools/Library/Frameworks/Python3.framework/Versions/3.8/lib/python3.8/asyncio/selector_events.py',
   'PYMODULE'),
  ('ssl',
   '/Library/Developer/CommandLineTools/Library/Frameworks/Python3.framework/Versions/3.8/lib/python3.8/ssl.py',
   'PYMODULE'),
  ('base64',
   '/Library/Developer/CommandLineTools/Library/Frameworks/Python3.framework/Versions/3.8/lib/python3.8/base64.py',
   'PYMODULE'),
  ('getopt',
   '/Library/Developer/CommandLineTools/Library/Frameworks/Python3.framework/Versions/3.8/lib/python3.8/getopt.py',
   'PYMODULE'),
  ('gettext',
   '/Library/Developer/CommandLineTools/Library/Frameworks/Python3.framework/Versions/3.8/lib/python3.8/gettext.py',
   'PYMODULE'),
  ('asyncio.proactor_events',
   '/Library/Developer/CommandLineTools/Library/Frameworks/Python3.framework/Versions/3.8/lib/python3.8/asyncio/proactor_events.py',
   'PYMODULE'),
  ('asyncio.base_subprocess',
   '/Library/Developer/CommandLineTools/Library/Frameworks/Python3.framework/Versions/3.8/lib/python3.8/asyncio/base_subprocess.py',
   'PYMODULE'),
  ('asyncio.subprocess',
   '/Library/Developer/CommandLineTools/Library/Frameworks/Python3.framework/Versions/3.8/lib/python3.8/asyncio/subprocess.py',
   'PYMODULE'),
  ('asyncio.streams',
   '/Library/Developer/CommandLineTools/Library/Frameworks/Python3.framework/Versions/3.8/lib/python3.8/asyncio/streams.py',
   'PYMODULE'),
  ('asyncio.queues',
   '/Library/Developer/CommandLineTools/Library/Frameworks/Python3.framework/Versions/3.8/lib/python3.8/asyncio/queues.py',
   'PYMODULE'),
  ('asyncio.runners',
   '/Library/Developer/CommandLineTools/Library/Frameworks/Python3.framework/Versions/3.8/lib/python3.8/asyncio/runners.py',
   'PYMODULE'),
  ('asyncio.trsock',
   '/Library/Developer/CommandLineTools/Library/Frameworks/Python3.framework/Versions/3.8/lib/python3.8/asyncio/trsock.py',
   'PYMODULE'),
  ('asyncio.staggered',
   '/Library/Developer/CommandLineTools/Library/Frameworks/Python3.framework/Versions/3.8/lib/python3.8/asyncio/staggered.py',
   'PYMODULE'),
  ('typing',
   '/Library/Developer/CommandLineTools/Library/Frameworks/Python3.framework/Versions/3.8/lib/python3.8/typing.py',
   'PYMODULE'),
  ('asyncio.tasks',
   '/Library/Developer/CommandLineTools/Library/Frameworks/Python3.framework/Versions/3.8/lib/python3.8/asyncio/tasks.py',
   'PYMODULE'),
  ('contextvars',
   '/Library/Developer/CommandLineTools/Library/Frameworks/Python3.framework/Versions/3.8/lib/python3.8/contextvars.py',
   'PYMODULE'),
  ('concurrent.futures',
   '/Library/Developer/CommandLineTools/Library/Frameworks/Python3.framework/Versions/3.8/lib/python3.8/concurrent/futures/__init__.py',
   'PYMODULE'),
  ('concurrent.futures.thread',
   '/Library/Developer/CommandLineTools/Library/Frameworks/Python3.framework/Versions/3.8/lib/python3.8/concurrent/futures/thread.py',
   'PYMODULE'),
  ('queue',
   '/Library/Developer/CommandLineTools/Library/Frameworks/Python3.framework/Versions/3.8/lib/python3.8/queue.py',
   'PYMODULE'),
  ('concurrent.futures.process',
   '/Library/Developer/CommandLineTools/Library/Frameworks/Python3.framework/Versions/3.8/lib/python3.8/concurrent/futures/process.py',
   'PYMODULE'),
  ('multiprocessing.queues',
   '/Library/Developer/CommandLineTools/Library/Frameworks/Python3.framework/Versions/3.8/lib/python3.8/multiprocessing/queues.py',
   'PYMODULE'),
  ('multiprocessing.synchronize',
   '/Library/Developer/CommandLineTools/Library/Frameworks/Python3.framework/Versions/3.8/lib/python3.8/multiprocessing/synchronize.py',
   'PYMODULE'),
  ('multiprocessing.heap',
   '/Library/Developer/CommandLineTools/Library/Frameworks/Python3.framework/Versions/3.8/lib/python3.8/multiprocessing/heap.py',
   'PYMODULE'),
  ('multiprocessing.resource_tracker',
   '/Library/Developer/CommandLineTools/Library/Frameworks/Python3.framework/Versions/3.8/lib/python3.8/multiprocessing/resource_tracker.py',
   'PYMODULE'),
  ('multiprocessing.spawn',
   '/Library/Developer/CommandLineTools/Library/Frameworks/Python3.framework/Versions/3.8/lib/python3.8/multiprocessing/spawn.py',
   'PYMODULE'),
  ('runpy',
   '/Library/Developer/CommandLineTools/Library/Frameworks/Python3.framework/Versions/3.8/lib/python3.8/runpy.py',
   'PYMODULE'),
  ('pkgutil',
   '/Library/Developer/CommandLineTools/Library/Frameworks/Python3.framework/Versions/3.8/lib/python3.8/pkgutil.py',
   'PYMODULE'),
  ('zipimport',
   '/Library/Developer/CommandLineTools/Library/Frameworks/Python3.framework/Versions/3.8/lib/python3.8/zipimport.py',
   'PYMODULE'),
  ('multiprocessing.process',
   '/Library/Developer/CommandLineTools/Library/Frameworks/Python3.framework/Versions/3.8/lib/python3.8/multiprocessing/process.py',
   'PYMODULE'),
  ('multiprocessing.util',
   '/Library/Developer/CommandLineTools/Library/Frameworks/Python3.framework/Versions/3.8/lib/python3.8/multiprocessing/util.py',
   'PYMODULE'),
  ('multiprocessing.forkserver',
   '/Library/Developer/CommandLineTools/Library/Frameworks/Python3.framework/Versions/3.8/lib/python3.8/multiprocessing/forkserver.py',
   'PYMODULE'),
  ('multiprocessing.context',
   '/Library/Developer/CommandLineTools/Library/Frameworks/Python3.framework/Versions/3.8/lib/python3.8/multiprocessing/context.py',
   'PYMODULE'),
  ('multiprocessing.popen_spawn_win32',
   '/Library/Developer/CommandLineTools/Library/Frameworks/Python3.framework/Versions/3.8/lib/python3.8/multiprocessing/popen_spawn_win32.py',
   'PYMODULE'),
  ('multiprocessing.popen_forkserver',
   '/Library/Developer/CommandLineTools/Library/Frameworks/Python3.framework/Versions/3.8/lib/python3.8/multiprocessing/popen_forkserver.py',
   'PYMODULE'),
  ('multiprocessing.popen_spawn_posix',
   '/Library/Developer/CommandLineTools/Library/Frameworks/Python3.framework/Versions/3.8/lib/python3.8/multiprocessing/popen_spawn_posix.py',
   'PYMODULE'),
  ('multiprocessing.popen_fork',
   '/Library/Developer/CommandLineTools/Library/Frameworks/Python3.framework/Versions/3.8/lib/python3.8/multiprocessing/popen_fork.py',
   'PYMODULE'),
  ('multiprocessing.sharedctypes',
   '/Library/Developer/CommandLineTools/Library/Frameworks/Python3.framework/Versions/3.8/lib/python3.8/multiprocessing/sharedctypes.py',
   'PYMODULE'),
  ('ctypes',
   '/Library/Developer/CommandLineTools/Library/Frameworks/Python3.framework/Versions/3.8/lib/python3.8/ctypes/__init__.py',
   'PYMODULE'),
  ('ctypes._endian',
   '/Library/Developer/CommandLineTools/Library/Frameworks/Python3.framework/Versions/3.8/lib/python3.8/ctypes/_endian.py',
   'PYMODULE'),
  ('multiprocessing.pool',
   '/Library/Developer/CommandLineTools/Library/Frameworks/Python3.framework/Versions/3.8/lib/python3.8/multiprocessing/pool.py',
   'PYMODULE'),
  ('multiprocessing.dummy',
   '/Library/Developer/CommandLineTools/Library/Frameworks/Python3.framework/Versions/3.8/lib/python3.8/multiprocessing/dummy/__init__.py',
   'PYMODULE'),
  ('multiprocessing.dummy.connection',
   '/Library/Developer/CommandLineTools/Library/Frameworks/Python3.framework/Versions/3.8/lib/python3.8/multiprocessing/dummy/connection.py',
   'PYMODULE'),
  ('multiprocessing.managers',
   '/Library/Developer/CommandLineTools/Library/Frameworks/Python3.framework/Versions/3.8/lib/python3.8/multiprocessing/managers.py',
   'PYMODULE'),
  ('multiprocessing.shared_memory',
   '/Library/Developer/CommandLineTools/Library/Frameworks/Python3.framework/Versions/3.8/lib/python3.8/multiprocessing/shared_memory.py',
   'PYMODULE'),
  ('secrets',
   '/Library/Developer/CommandLineTools/Library/Frameworks/Python3.framework/Versions/3.8/lib/python3.8/secrets.py',
   'PYMODULE'),
  ('hmac',
   '/Library/Developer/CommandLineTools/Library/Frameworks/Python3.framework/Versions/3.8/lib/python3.8/hmac.py',
   'PYMODULE'),
  ('multiprocessing.reduction',
   '/Library/Developer/CommandLineTools/Library/Frameworks/Python3.framework/Versions/3.8/lib/python3.8/multiprocessing/reduction.py',
   'PYMODULE'),
  ('multiprocessing.resource_sharer',
   '/Library/Developer/CommandLineTools/Library/Frameworks/Python3.framework/Versions/3.8/lib/python3.8/multiprocessing/resource_sharer.py',
   'PYMODULE'),
  ('multiprocessing.connection',
   '/Library/Developer/CommandLineTools/Library/Frameworks/Python3.framework/Versions/3.8/lib/python3.8/multiprocessing/connection.py',
   'PYMODULE'),
  ('xmlrpc.client',
   '/Library/Developer/CommandLineTools/Library/Frameworks/Python3.framework/Versions/3.8/lib/python3.8/xmlrpc/client.py',
   'PYMODULE'),
  ('xmlrpc',
   '/Library/Developer/CommandLineTools/Library/Frameworks/Python3.framework/Versions/3.8/lib/python3.8/xmlrpc/__init__.py',
   'PYMODULE'),
  ('xml.parsers.expat',
   '/Library/Developer/CommandLineTools/Library/Frameworks/Python3.framework/Versions/3.8/lib/python3.8/xml/parsers/expat.py',
   'PYMODULE'),
  ('xml.parsers',
   '/Library/Developer/CommandLineTools/Library/Frameworks/Python3.framework/Versions/3.8/lib/python3.8/xml/parsers/__init__.py',
   'PYMODULE'),
  ('xml',
   '/Library/Developer/CommandLineTools/Library/Frameworks/Python3.framework/Versions/3.8/lib/python3.8/xml/__init__.py',
   'PYMODULE'),
  ('xml.sax.expatreader',
   '/Library/Developer/CommandLineTools/Library/Frameworks/Python3.framework/Versions/3.8/lib/python3.8/xml/sax/expatreader.py',
   'PYMODULE'),
  ('xml.sax.saxutils',
   '/Library/Developer/CommandLineTools/Library/Frameworks/Python3.framework/Versions/3.8/lib/python3.8/xml/sax/saxutils.py',
   'PYMODULE'),
  ('urllib.request',
   '/Library/Developer/CommandLineTools/Library/Frameworks/Python3.framework/Versions/3.8/lib/python3.8/urllib/request.py',
   'PYMODULE'),
  ('getpass',
   '/Library/Developer/CommandLineTools/Library/Frameworks/Python3.framework/Versions/3.8/lib/python3.8/getpass.py',
   'PYMODULE'),
  ('nturl2path',
   '/Library/Developer/CommandLineTools/Library/Frameworks/Python3.framework/Versions/3.8/lib/python3.8/nturl2path.py',
   'PYMODULE'),
  ('ftplib',
   '/Library/Developer/CommandLineTools/Library/Frameworks/Python3.framework/Versions/3.8/lib/python3.8/ftplib.py',
   'PYMODULE'),
  ('netrc',
   '/Library/Developer/CommandLineTools/Library/Frameworks/Python3.framework/Versions/3.8/lib/python3.8/netrc.py',
   'PYMODULE'),
  ('shlex',
   '/Library/Developer/CommandLineTools/Library/Frameworks/Python3.framework/Versions/3.8/lib/python3.8/shlex.py',
   'PYMODULE'),
  ('mimetypes',
   '/Library/Developer/CommandLineTools/Library/Frameworks/Python3.framework/Versions/3.8/lib/python3.8/mimetypes.py',
   'PYMODULE'),
  ('http.cookiejar',
   '/Library/Developer/CommandLineTools/Library/Frameworks/Python3.framework/Versions/3.8/lib/python3.8/http/cookiejar.py',
   'PYMODULE'),
  ('http',
   '/Library/Developer/CommandLineTools/Library/Frameworks/Python3.framework/Versions/3.8/lib/python3.8/http/__init__.py',
   'PYMODULE'),
  ('urllib.response',
   '/Library/Developer/CommandLineTools/Library/Frameworks/Python3.framework/Versions/3.8/lib/python3.8/urllib/response.py',
   'PYMODULE'),
  ('urllib.error',
   '/Library/Developer/CommandLineTools/Library/Frameworks/Python3.framework/Versions/3.8/lib/python3.8/urllib/error.py',
   'PYMODULE'),
  ('xml.sax',
   '/Library/Developer/CommandLineTools/Library/Frameworks/Python3.framework/Versions/3.8/lib/python3.8/xml/sax/__init__.py',
   'PYMODULE'),
  ('xml.sax.handler',
   '/Library/Developer/CommandLineTools/Library/Frameworks/Python3.framework/Versions/3.8/lib/python3.8/xml/sax/handler.py',
   'PYMODULE'),
  ('xml.sax._exceptions',
   '/Library/Developer/CommandLineTools/Library/Frameworks/Python3.framework/Versions/3.8/lib/python3.8/xml/sax/_exceptions.py',
   'PYMODULE'),
  ('xml.sax.xmlreader',
   '/Library/Developer/CommandLineTools/Library/Frameworks/Python3.framework/Versions/3.8/lib/python3.8/xml/sax/xmlreader.py',
   'PYMODULE'),
  ('http.client',
   '/Library/Developer/CommandLineTools/Library/Frameworks/Python3.framework/Versions/3.8/lib/python3.8/http/client.py',
   'PYMODULE'),
  ('email.message',
   '/Library/Developer/CommandLineTools/Library/Frameworks/Python3.framework/Versions/3.8/lib/python3.8/email/message.py',
   'PYMODULE'),
  ('email.policy',
   '/Library/Developer/CommandLineTools/Library/Frameworks/Python3.framework/Versions/3.8/lib/python3.8/email/policy.py',
   'PYMODULE'),
  ('email.contentmanager',
   '/Library/Developer/CommandLineTools/Library/Frameworks/Python3.framework/Versions/3.8/lib/python3.8/email/contentmanager.py',
   'PYMODULE'),
  ('email.quoprimime',
   '/Library/Developer/CommandLineTools/Library/Frameworks/Python3.framework/Versions/3.8/lib/python3.8/email/quoprimime.py',
   'PYMODULE'),
  ('email.headerregistry',
   '/Library/Developer/CommandLineTools/Library/Frameworks/Python3.framework/Versions/3.8/lib/python3.8/email/headerregistry.py',
   'PYMODULE'),
  ('email.iterators',
   '/Library/Developer/CommandLineTools/Library/Frameworks/Python3.framework/Versions/3.8/lib/python3.8/email/iterators.py',
   'PYMODULE'),
  ('email.generator',
   '/Library/Developer/CommandLineTools/Library/Frameworks/Python3.framework/Versions/3.8/lib/python3.8/email/generator.py',
   'PYMODULE'),
  ('email._encoded_words',
   '/Library/Developer/CommandLineTools/Library/Frameworks/Python3.framework/Versions/3.8/lib/python3.8/email/_encoded_words.py',
   'PYMODULE'),
  ('quopri',
   '/Library/Developer/CommandLineTools/Library/Frameworks/Python3.framework/Versions/3.8/lib/python3.8/quopri.py',
   'PYMODULE'),
  ('uu',
   '/Library/Developer/CommandLineTools/Library/Frameworks/Python3.framework/Versions/3.8/lib/python3.8/uu.py',
   'PYMODULE'),
  ('optparse',
   '/Library/Developer/CommandLineTools/Library/Frameworks/Python3.framework/Versions/3.8/lib/python3.8/optparse.py',
   'PYMODULE'),
  ('textwrap',
   '/Library/Developer/CommandLineTools/Library/Frameworks/Python3.framework/Versions/3.8/lib/python3.8/textwrap.py',
   'PYMODULE'),
  ('decimal',
   '/Library/Developer/CommandLineTools/Library/Frameworks/Python3.framework/Versions/3.8/lib/python3.8/decimal.py',
   'PYMODULE'),
  ('_pydecimal',
   '/Library/Developer/CommandLineTools/Library/Frameworks/Python3.framework/Versions/3.8/lib/python3.8/_pydecimal.py',
   'PYMODULE'),
  ('numbers',
   '/Library/Developer/CommandLineTools/Library/Frameworks/Python3.framework/Versions/3.8/lib/python3.8/numbers.py',
   'PYMODULE'),
  ('multiprocessing',
   '/Library/Developer/CommandLineTools/Library/Frameworks/Python3.framework/Versions/3.8/lib/python3.8/multiprocessing/__init__.py',
   'PYMODULE'),
  ('concurrent.futures._base',
   '/Library/Developer/CommandLineTools/Library/Frameworks/Python3.framework/Versions/3.8/lib/python3.8/concurrent/futures/_base.py',
   'PYMODULE'),
  ('concurrent',
   '/Library/Developer/CommandLineTools/Library/Frameworks/Python3.framework/Versions/3.8/lib/python3.8/concurrent/__init__.py',
   'PYMODULE'),
  ('asyncio.base_tasks',
   '/Library/Developer/CommandLineTools/Library/Frameworks/Python3.framework/Versions/3.8/lib/python3.8/asyncio/base_tasks.py',
   'PYMODULE'),
  ('asyncio.locks',
   '/Library/Developer/CommandLineTools/Library/Frameworks/Python3.framework/Versions/3.8/lib/python3.8/asyncio/locks.py',
   'PYMODULE'),
  ('asyncio.sslproto',
   '/Library/Developer/CommandLineTools/Library/Frameworks/Python3.framework/Versions/3.8/lib/python3.8/asyncio/sslproto.py',
   'PYMODULE'),
  ('asyncio.transports',
   '/Library/Developer/CommandLineTools/Library/Frameworks/Python3.framework/Versions/3.8/lib/python3.8/asyncio/transports.py',
   'PYMODULE'),
  ('asyncio.base_events',
   '/Library/Developer/CommandLineTools/Library/Frameworks/Python3.framework/Versions/3.8/lib/python3.8/asyncio/base_events.py',
   'PYMODULE'),
  ('asyncio.protocols',
   '/Library/Developer/CommandLineTools/Library/Frameworks/Python3.framework/Versions/3.8/lib/python3.8/asyncio/protocols.py',
   'PYMODULE'),
  ('asyncio.futures',
   '/Library/Developer/CommandLineTools/Library/Frameworks/Python3.framework/Versions/3.8/lib/python3.8/asyncio/futures.py',
   'PYMODULE'),
  ('asyncio.events',
   '/Library/Developer/CommandLineTools/Library/Frameworks/Python3.framework/Versions/3.8/lib/python3.8/asyncio/events.py',
   'PYMODULE'),
  ('asyncio.exceptions',
   '/Library/Developer/CommandLineTools/Library/Frameworks/Python3.framework/Versions/3.8/lib/python3.8/asyncio/exceptions.py',
   'PYMODULE'),
  ('asyncio.coroutines',
   '/Library/Developer/CommandLineTools/Library/Frameworks/Python3.framework/Versions/3.8/lib/python3.8/asyncio/coroutines.py',
   'PYMODULE'),
  ('asyncio.base_futures',
   '/Library/Developer/CommandLineTools/Library/Frameworks/Python3.framework/Versions/3.8/lib/python3.8/asyncio/base_futures.py',
   'PYMODULE'),
  ('asyncio.format_helpers',
   '/Library/Developer/CommandLineTools/Library/Frameworks/Python3.framework/Versions/3.8/lib/python3.8/asyncio/format_helpers.py',
   'PYMODULE'),
  ('asyncio.constants',
   '/Library/Developer/CommandLineTools/Library/Frameworks/Python3.framework/Versions/3.8/lib/python3.8/asyncio/constants.py',
   'PYMODULE'),
  ('unittest.result',
   '/Library/Developer/CommandLineTools/Library/Frameworks/Python3.framework/Versions/3.8/lib/python3.8/unittest/result.py',
   'PYMODULE'),
  ('unittest.util',
   '/Library/Developer/CommandLineTools/Library/Frameworks/Python3.framework/Versions/3.8/lib/python3.8/unittest/util.py',
   'PYMODULE'),
  ('pdb',
   '/Library/Developer/CommandLineTools/Library/Frameworks/Python3.framework/Versions/3.8/lib/python3.8/pdb.py',
   'PYMODULE'),
  ('pydoc',
   '/Library/Developer/CommandLineTools/Library/Frameworks/Python3.framework/Versions/3.8/lib/python3.8/pydoc.py',
   'PYMODULE'),
  ('webbrowser',
   '/Library/Developer/CommandLineTools/Library/Frameworks/Python3.framework/Versions/3.8/lib/python3.8/webbrowser.py',
   'PYMODULE'),
  ('http.server',
   '/Library/Developer/CommandLineTools/Library/Frameworks/Python3.framework/Versions/3.8/lib/python3.8/http/server.py',
   'PYMODULE'),
  ('socketserver',
   '/Library/Developer/CommandLineTools/Library/Frameworks/Python3.framework/Versions/3.8/lib/python3.8/socketserver.py',
   'PYMODULE'),
  ('html',
   '/Library/Developer/CommandLineTools/Library/Frameworks/Python3.framework/Versions/3.8/lib/python3.8/html/__init__.py',
   'PYMODULE'),
  ('html.entities',
   '/Library/Developer/CommandLineTools/Library/Frameworks/Python3.framework/Versions/3.8/lib/python3.8/html/entities.py',
   'PYMODULE'),
  ('pydoc_data.topics',
   '/Library/Developer/CommandLineTools/Library/Frameworks/Python3.framework/Versions/3.8/lib/python3.8/pydoc_data/topics.py',
   'PYMODULE'),
  ('pydoc_data',
   '/Library/Developer/CommandLineTools/Library/Frameworks/Python3.framework/Versions/3.8/lib/python3.8/pydoc_data/__init__.py',
   'PYMODULE'),
  ('tty',
   '/Library/Developer/CommandLineTools/Library/Frameworks/Python3.framework/Versions/3.8/lib/python3.8/tty.py',
   'PYMODULE'),
  ('sysconfig',
   '/Library/Developer/CommandLineTools/Library/Frameworks/Python3.framework/Versions/3.8/lib/python3.8/sysconfig.py',
   'PYMODULE'),
  ('_sysconfigdata__darwin_darwin',
   '/Library/Developer/CommandLineTools/Library/Frameworks/Python3.framework/Versions/3.8/lib/python3.8/_sysconfigdata__darwin_darwin.py',
   'PYMODULE'),
  ('_osx_support',
   '/Library/Developer/CommandLineTools/Library/Frameworks/Python3.framework/Versions/3.8/lib/python3.8/_osx_support.py',
   'PYMODULE'),
  ('distutils.log',
   '/Library/Developer/CommandLineTools/Library/Frameworks/Python3.framework/Versions/3.8/lib/python3.8/distutils/log.py',
   'PYMODULE'),
  ('distutils',
   '/Library/Developer/CommandLineTools/Library/Frameworks/Python3.framework/Versions/3.8/lib/python3.8/distutils/__init__.py',
   'PYMODULE'),
  ('platform',
   '/Library/Developer/CommandLineTools/Library/Frameworks/Python3.framework/Versions/3.8/lib/python3.8/platform.py',
   'PYMODULE'),
  ('plistlib',
   '/Library/Developer/CommandLineTools/Library/Frameworks/Python3.framework/Versions/3.8/lib/python3.8/plistlib.py',
   'PYMODULE'),
  ('glob',
   '/Library/Developer/CommandLineTools/Library/Frameworks/Python3.framework/Versions/3.8/lib/python3.8/glob.py',
   'PYMODULE'),
  ('code',
   '/Library/Developer/CommandLineTools/Library/Frameworks/Python3.framework/Versions/3.8/lib/python3.8/code.py',
   'PYMODULE'),
  ('codeop',
   '/Library/Developer/CommandLineTools/Library/Frameworks/Python3.framework/Versions/3.8/lib/python3.8/codeop.py',
   'PYMODULE'),
  ('bdb',
   '/Library/Developer/CommandLineTools/Library/Frameworks/Python3.framework/Versions/3.8/lib/python3.8/bdb.py',
   'PYMODULE'),
  ('cmd',
   '/Library/Developer/CommandLineTools/Library/Frameworks/Python3.framework/Versions/3.8/lib/python3.8/cmd.py',
   'PYMODULE'),
  ('difflib',
   '/Library/Developer/CommandLineTools/Library/Frameworks/Python3.framework/Versions/3.8/lib/python3.8/difflib.py',
   'PYMODULE'),
  ('__future__',
   '/Library/Developer/CommandLineTools/Library/Frameworks/Python3.framework/Versions/3.8/lib/python3.8/__future__.py',
   'PYMODULE'),
  ('_compat_pickle',
   '/Library/Developer/CommandLineTools/Library/Frameworks/Python3.framework/Versions/3.8/lib/python3.8/_compat_pickle.py',
   'PYMODULE'),
  ('bisect',
   '/Library/Developer/CommandLineTools/Library/Frameworks/Python3.framework/Versions/3.8/lib/python3.8/bisect.py',
   'PYMODULE'),
  ('email.feedparser',
   '/Library/Developer/CommandLineTools/Library/Frameworks/Python3.framework/Versions/3.8/lib/python3.8/email/feedparser.py',
   'PYMODULE'),
  ('email._header_value_parser',
   '/Library/Developer/CommandLineTools/Library/Frameworks/Python3.framework/Versions/3.8/lib/python3.8/email/_header_value_parser.py',
   'PYMODULE'),
  ('email.header',
   '/Library/Developer/CommandLineTools/Library/Frameworks/Python3.framework/Versions/3.8/lib/python3.8/email/header.py',
   'PYMODULE'),
  ('email.base64mime',
   '/Library/Developer/CommandLineTools/Library/Frameworks/Python3.framework/Versions/3.8/lib/python3.8/email/base64mime.py',
   'PYMODULE'),
  ('email.charset',
   '/Library/Developer/CommandLineTools/Library/Frameworks/Python3.framework/Versions/3.8/lib/python3.8/email/charset.py',
   'PYMODULE'),
  ('email.encoders',
   '/Library/Developer/CommandLineTools/Library/Frameworks/Python3.framework/Versions/3.8/lib/python3.8/email/encoders.py',
   'PYMODULE'),
  ('email.errors',
   '/Library/Developer/CommandLineTools/Library/Frameworks/Python3.framework/Versions/3.8/lib/python3.8/email/errors.py',
   'PYMODULE'),
  ('csv',
   '/Library/Developer/CommandLineTools/Library/Frameworks/Python3.framework/Versions/3.8/lib/python3.8/csv.py',
   'PYMODULE'),
  ('importlib._bootstrap',
   '/Library/Developer/CommandLineTools/Library/Frameworks/Python3.framework/Versions/3.8/lib/python3.8/importlib/_bootstrap.py',
   'PYMODULE'),
  ('argparse',
   '/Library/Developer/CommandLineTools/Library/Frameworks/Python3.framework/Versions/3.8/lib/python3.8/argparse.py',
   'PYMODULE'),
  ('ast',
   '/Library/Developer/CommandLineTools/Library/Frameworks/Python3.framework/Versions/3.8/lib/python3.8/ast.py',
   'PYMODULE'),
  ('token',
   '/Library/Developer/CommandLineTools/Library/Frameworks/Python3.framework/Versions/3.8/lib/python3.8/token.py',
   'PYMODULE'),
  ('tokenize',
   '/Library/Developer/CommandLineTools/Library/Frameworks/Python3.framework/Versions/3.8/lib/python3.8/tokenize.py',
   'PYMODULE'),
  ('importlib.machinery',
   '/Library/Developer/CommandLineTools/Library/Frameworks/Python3.framework/Versions/3.8/lib/python3.8/importlib/machinery.py',
   'PYMODULE'),
  ('dis',
   '/Library/Developer/CommandLineTools/Library/Frameworks/Python3.framework/Versions/3.8/lib/python3.8/dis.py',
   'PYMODULE'),
  ('opcode',
   '/Library/Developer/CommandLineTools/Library/Frameworks/Python3.framework/Versions/3.8/lib/python3.8/opcode.py',
   'PYMODULE'),
  ('os',
   '/Library/Developer/CommandLineTools/Library/Frameworks/Python3.framework/Versions/3.8/lib/python3.8/os.py',
   'PYMODULE'),
  ('tracemalloc',
   '/Library/Developer/CommandLineTools/Library/Frameworks/Python3.framework/Versions/3.8/lib/python3.8/tracemalloc.py',
   'PYMODULE'),
  ('stringprep',
   '/Library/Developer/CommandLineTools/Library/Frameworks/Python3.framework/Versions/3.8/lib/python3.8/stringprep.py',
   'PYMODULE'),
  ('_py_abc',
   '/Library/Developer/CommandLineTools/Library/Frameworks/Python3.framework/Versions/3.8/lib/python3.8/_py_abc.py',
   'PYMODULE'),
  ('json',
   '/Library/Developer/CommandLineTools/Library/Frameworks/Python3.framework/Versions/3.8/lib/python3.8/json/__init__.py',
   'PYMODULE'),
  ('json.encoder',
   '/Library/Developer/CommandLineTools/Library/Frameworks/Python3.framework/Versions/3.8/lib/python3.8/json/encoder.py',
   'PYMODULE'),
  ('json.decoder',
   '/Library/Developer/CommandLineTools/Library/Frameworks/Python3.framework/Versions/3.8/lib/python3.8/json/decoder.py',
   'PYMODULE'),
  ('json.scanner',
   '/Library/Developer/CommandLineTools/Library/Frameworks/Python3.framework/Versions/3.8/lib/python3.8/json/scanner.py',
   'PYMODULE'),
  ('socket',
   '/Library/Developer/CommandLineTools/Library/Frameworks/Python3.framework/Versions/3.8/lib/python3.8/socket.py',
   'PYMODULE')])
